Assignment 4
…
  # ensure to only count events of damage
  filter(damage == '1') %>% 
  
  # group by targetspp to get summaries for each species and year
  group_by(targetspp, year) %>% 
  
  summarise(n = n()) %>% 
  
  arrange(desc(n))

## `summarise()` has grouped output by 'targetspp'. You can override using the
## `.groups` argument.

## # A tibble: 25 × 3
## # Groups:   targetspp [3]
##    targetspp year      n
##    <fct>     <fct> <int>
##  1 bovine    2012     31
##  2 bovine    2013     30
##  3 bovine    2015     22
##  4 bovine    2014     21
##  5 bovine    2016     18
##  6 bovine    2011      8
##  7 ovine     2016      7
##  8 ovine     2012      7
##  9 ovine     2008      7
## 10 bovine    2010      7
## # ℹ 15 more rows
…
