Assignment 3
…
# and finally without making a vector for the tags

turtles_tidy %>%
  
  # mutate across rows, except for the tag column
  mutate(across(-tag, 
                
                # change all variables values for tags 104 and 105 to NAs 
                ~ if_else(tag %in% c(104, 105), NA, .)))

## # A tibble: 21 × 5
##      tag sex    c_length h_width weight
##    <dbl> <chr>     <dbl>   <dbl>  <dbl>
##  1    10 male       41      7.15   7.6 
##  2    11 female     46.4    8.18  11   
##  3     2 <NA>       24.3    4.42   1.65
##  4    15 <NA>       28.7    4.89   2.18
##  5    16 <NA>       32      5.37   3   
##  6     3 female     42.8    7.32   8.6 
##  7     4 male       40      6.6    6.5 
##  8     5 female     45      8.05  10.9 
##  9    12 female     44      7.55   8.9 
## 10    13 <NA>       28      4.85   1.97
## # ℹ 11 more rows
…
# Use 'tidyverse' to reshape the data 

soil_nutrient <- pivot_longer(soil, 
                         cols = c(Ca,Mg,K, Na), 
                         names_to = 'nutrient',
                         values_to = 'value')

soil_nutrient

## # A tibble: 192 × 12
##    Group Contour Depth Gp    Block    pH     N  Dens     P Conduc nutrient value
##    <fct> <fct>   <fct> <fct> <fct> <dbl> <dbl> <dbl> <int>  <dbl> <chr>    <dbl>
##  1 1     Top     0-10  T0    1      5.4  0.188  0.92   215   1.09 Ca       16.4 
##  2 1     Top     0-10  T0    1      5.4  0.188  0.92   215   1.09 Mg        7.65
##  3 1     Top     0-10  T0    1      5.4  0.188  0.92   215   1.09 K         0.72
##  4 1     Top     0-10  T0    1      5.4  0.188  0.92   215   1.09 Na        1.14
##  5 1     Top     0-10  T0    2      5.65 0.165  1.04   208   1.35 Ca       12.2 
##  6 1     Top     0-10  T0    2      5.65 0.165  1.04   208   1.35 Mg        5.15
##  7 1     Top     0-10  T0    2      5.65 0.165  1.04   208   1.35 K         0.71
##  8 1     Top     0-10  T0    2      5.65 0.165  1.04   208   1.35 Na        0.94
##  9 1     Top     0-10  T0    3      5.14 0.26   0.95   300   1.41 Ca       13.0 
## 10 1     Top     0-10  T0    3      5.14 0.26   0.95   300   1.41 Mg        5.68
## # ℹ 182 more rows

# alternatively
soil_nutrient <- pivot_longer(soil, 
                         cols = Ca:Na, 
                         names_to = 'nutrient',
                         values_to = 'value')

soil_nutrient

## # A tibble: 192 × 12
##    Group Contour Depth Gp    Block    pH     N  Dens     P Conduc nutrient value
##    <fct> <fct>   <fct> <fct> <fct> <dbl> <dbl> <dbl> <int>  <dbl> <chr>    <dbl>
##  1 1     Top     0-10  T0    1      5.4  0.188  0.92   215   1.09 Ca       16.4 
##  2 1     Top     0-10  T0    1      5.4  0.188  0.92   215   1.09 Mg        7.65
##  3 1     Top     0-10  T0    1      5.4  0.188  0.92   215   1.09 K         0.72
##  4 1     Top     0-10  T0    1      5.4  0.188  0.92   215   1.09 Na        1.14
##  5 1     Top     0-10  T0    2      5.65 0.165  1.04   208   1.35 Ca       12.2 
##  6 1     Top     0-10  T0    2      5.65 0.165  1.04   208   1.35 Mg        5.15
##  7 1     Top     0-10  T0    2      5.65 0.165  1.04   208   1.35 K         0.71
##  8 1     Top     0-10  T0    2      5.65 0.165  1.04   208   1.35 Na        0.94
##  9 1     Top     0-10  T0    3      5.14 0.26   0.95   300   1.41 Ca       13.0 
## 10 1     Top     0-10  T0    3      5.14 0.26   0.95   300   1.41 Mg        5.68
## # ℹ 182 more rows
…
