Day 1 Module 2
…
# Load packages to library 

library(tidyr)

Built-in datasets

Many packages come with built-in datasets as well.
For, instance, ggplot2 comes with the “diamonds” data:

  # Package datasets ----------------------

ggplot2::diamonds   # note the use of the package name followed by two colons- this is a way to make sure you are using a function (or data set or other object) from a particular package... (sometimes several packages have functions with the same name...)

## # A tibble: 53,940 × 10
##    carat cut       color clarity depth table price     x     y     z
##    <dbl> <ord>     <ord> <ord>   <dbl> <dbl> <int> <dbl> <dbl> <dbl>
##  1  0.23 Ideal     E     SI2      61.5    55   326  3.95  3.98  2.43
##  2  0.21 Premium   E     SI1      59.8    61   326  3.89  3.84  2.31
##  3  0.23 Good      E     VS1      56.9    65   327  4.05  4.07  2.31
##  4  0.29 Premium   I     VS2      62.4    58   334  4.2   4.23  2.63
##  5  0.31 Good      J     SI2      63.3    58   335  4.34  4.35  2.75
##  6  0.24 Very Good J     VVS2     62.8    57   336  3.94  3.96  2.48
##  7  0.24 Very Good I     VVS1     62.3    57   336  3.95  3.98  2.47
##  8  0.26 Very Good H     SI1      61.9    55   337  4.07  4.11  2.53
##  9  0.22 Fair      E     VS2      65.1    61   337  3.87  3.78  2.49
## 10  0.23 Very Good H     VS1      59.4    61   338  4     4.05  2.39
## # … with 53,930 more rows
…
# check names of turtles data before changing
names(turtles.df)

## [1] "Tag_number"      "Sex"             "Carapace_length" "Head_width"     
## [5] "Weight"

turtles.df %>% 
  
   # set column names to lowercase
  set_names(
    names(.) %>%  # the period here is a placeholder for the data it tells R to use the element before the last pipe (e.g., turtles.df)
      tolower()) 

## # A tibble: 21 × 5
##    tag_number sex    carapace_length head_width weight
##         <dbl> <chr>            <dbl>      <dbl>  <dbl>
##  1         10 male              41         7.15   7.6 
##  2         11 female            46.4       8.18  11   
##  3          2 <NA>              24.3       4.42   1.65
##  4         15 <NA>              28.7       4.89   2.18
##  5         16 <NA>              32         5.37   3   
##  6          3 female            42.8       7.32   8.6 
##  7          4 male              40         6.6    6.5 
##  8          5 female            45         8.05  10.9 
##  9         12 female            44         7.55   8.9 
## 10         13 <NA>              28         4.85   1.97
## # … with 11 more rows
…
# Change variable type ----------------------

# Change sex to factor
turtles.df %>% 
  mutate(sex = as.factor(sex)) # we use the same name for our 'new' column so that it modifies the old column instead of creating a new one

## # A tibble: 21 × 5
##      tag sex    c_length h_width weight
##    <dbl> <fct>     <dbl>   <dbl>  <dbl>
##  1    10 male       41      7.15   7.6 
##  2    11 female     46.4    8.18  11   
##  3     2 <NA>       24.3    4.42   1.65
##  4    15 <NA>       28.7    4.89   2.18
##  5    16 <NA>       32      5.37   3   
##  6     3 female     42.8    7.32   8.6 
##  7     4 male       40      6.6    6.5 
##  8     5 female     45      8.05  10.9 
##  9    12 female     44      7.55   8.9 
## 10    13 <NA>       28      4.85   1.97
## # … with 11 more rows
…
Similar to the summarise() function we
can also perform mutations on all the columns
(mutate_all()) or multiple columns that fit a criteria
(mutat_if()).  Without assigning
the object to the environment to mutate all the
numeric columns to characters 
in the turtles data. HINT: Look at the R Documentation
examples.

# read turtle_data.txt in to R using readr
turtles.df %>% 
  mutate_if(is.numeric, as.character)

## # A tibble: 21 × 5
##    tag   sex    c_length h_width weight
##    <chr> <fct>  <chr>    <chr>   <chr> 
##  1 10    male   41       7.15    7.6   
##  2 11    female 46.4     8.18    11    
##  3 2     <NA>   24.3     4.42    1.65  
##  4 15    <NA>   28.7     4.89    2.18  
##  5 16    <NA>   32       5.37    3     
##  6 3     female 42.8     7.32    8.6   
##  7 4     male   40       6.6     6.5   
##  8 5     female 45       8.05    10.9  
##  9 12    female 44       7.55    8.9   
## 10 13    <NA>   28       4.85    1.97  
## # … with 11 more rows
…
Select

If we only want to work with specific columns we can also subset the
data using the select() function. We don’t
need Boolean operations here, instead we can just refer to the column
names.

  # Select ----------------------

turtles.df %>% 
  
  # return data for tag and weight only
  select(tag, weight)

## # A tibble: 21 × 2
##      tag weight
##    <dbl>  <dbl>
##  1    10   7.6 
##  2    11  11   
##  3     2   1.65
##  4    15   2.18
##  5    16   3   
##  6     3   8.6 
##  7     4   6.5 
##  8     5  10.9 
##  9    12   8.9 
## 10    13   1.97
## # … with 11 more rows
…
