Day 1 Module 3
…
We will continue working with the turtles dataset for part of this
module, but let’s use the one we altered with lowercase variable names.
Read in the altered turtles data frame we
created in module 1_2 (e.g. turtles_tidy) and print it to the
console.

  # import data ----------------------

# read in altered turtles data
turtles_tidy <- read_csv('data/turtles_tidy.csv')

# print data
turtles_tidy

## # A tibble: 21 × 5
##      tag sex    c_length h_width weight
##    <dbl> <chr>     <dbl>   <dbl>  <dbl>
##  1    10 male       41      7.15   7.6 
##  2    11 female     46.4    8.18  11   
##  3     2 <NA>       24.3    4.42   1.65
##  4    15 <NA>       28.7    4.89   2.18
##  5    16 <NA>       32      5.37   3   
##  6     3 female     42.8    7.32   8.6 
##  7     4 male       40      6.6    6.5 
##  8     5 female     45      8.05  10.9 
##  9    12 female     44      7.55   8.9 
## 10    13 <NA>       28      4.85   1.97
## # … with 11 more rows
…
Sorting is another common data operation, which helps to visualize
and organize data. In the tidyverse, sorting (by row)
is accomplished using the arrange()
function.

# Sorting/ordering data --------------------

#  Sorting  

# To sort a data frame by one vector (variable), you can use arrange()
turtles_tidy %>% 
  arrange(c_length)

## # A tibble: 21 × 5
##      tag sex    c_length h_width weight
##    <dbl> <chr>     <dbl>   <dbl>  <dbl>
##  1     2 <NA>       24.3    4.42   1.65
##  2    13 <NA>       28      4.85   1.97
##  3    15 <NA>       28.7    4.89   2.18
##  4     1 <NA>       29.2    5.1    2.38
##  5    16 <NA>       32      5.37   3   
##  6     8 <NA>       32      5.35   2.9 
##  7     9 male       35      5.74   3.9 
##  8    17 female     35.1    6.04   4.5 
##  9     4 male       40      6.6    6.5 
## 10     6 fem        40      6.53   6.2 
## # … with 11 more rows

# or if we want in descending order...
turtles_tidy %>% 
  arrange(desc(c_length))

## # A tibble: 21 × 5
##      tag sex    c_length h_width weight
##    <dbl> <chr>     <dbl>   <dbl>  <dbl>
##  1    22 female     48.1    8.55   12.8
##  2     7 female     48      8.67   13.5
##  3    11 female     46.4    8.18   11  
##  4     5 female     45      8.05   10.9
##  5    12 female     44      7.55    8.9
##  6   105 male       44      7.1     9  
##  7   104 male       44      7.35    9  
##  8    14 male       43      6.6     7.2
##  9     3 female     42.8    7.32    8.6
## 10    19 male       42.3    6.77    7.8
## # … with 11 more rows

# Sorting by 2 columns
turtles_tidy %>% 
  arrange(sex,weight)

## # A tibble: 21 × 5
##      tag sex    c_length h_width weight
##    <dbl> <chr>     <dbl>   <dbl>  <dbl>
##  1     6 fem        40      6.53    6.2
##  2    17 female     35.1    6.04    4.5
##  3     3 female     42.8    7.32    8.6
##  4    12 female     44      7.55    8.9
##  5     5 female     45      8.05   10.9
##  6    11 female     46.4    8.18   11  
##  7    22 female     48.1    8.55   12.8
##  8     7 female     48      8.67   13.5
##  9     9 male       35      5.74    3.9
## 10     4 male       40      6.6     6.5
## # … with 11 more rows

Let’s practice this with the diamonds data in the ggplot2
package.  Arrange the data
by highest price to lowest price.

# practice- arrange diamonds data by highest price to lowest price
diamonds %>% 
  
  # arrange by price (descending)
  arrange(desc(price))

## # A tibble: 53,940 × 10
##    carat cut       color clarity depth table price     x     y     z
##    <dbl> <ord>     <ord> <ord>   <dbl> <dbl> <int> <dbl> <dbl> <dbl>
##  1  2.29 Premium   I     VS2      60.8    60 18823  8.5   8.47  5.16
##  2  2    Very Good G     SI1      63.5    56 18818  7.9   7.97  5.04
##  3  1.51 Ideal     G     IF       61.7    55 18806  7.37  7.41  4.56
##  4  2.07 Ideal     G     SI2      62.5    55 18804  8.2   8.13  5.11
##  5  2    Very Good H     SI1      62.8    57 18803  7.95  8     5.01
##  6  2.29 Premium   I     SI1      61.8    59 18797  8.52  8.45  5.24
##  7  2.04 Premium   H     SI1      58.1    60 18795  8.37  8.28  4.84
##  8  2    Premium   I     VS1      60.8    59 18795  8.13  8.02  4.91
##  9  1.71 Premium   F     VS2      62.3    59 18791  7.57  7.53  4.7 
## 10  2.15 Ideal     G     SI2      62.6    54 18791  8.29  8.35  5.21
## # … with 53,930 more rows
…
We can also reorder the columns in our dataset using
relocate(). In the turtles_tidy data if we want ‘weight’ to
come before ‘c_length’ we can reorder the columns as follows

# ordering data

# example with turtles_tidy data
turtles_tidy %>% 
  
  # move 'weight' before 'c_length'
  relocate(weight, 
           .before = c_length)

## # A tibble: 21 × 5
##      tag sex    weight c_length h_width
##    <dbl> <chr>   <dbl>    <dbl>   <dbl>
##  1    10 male     7.6      41      7.15
##  2    11 female  11        46.4    8.18
##  3     2 <NA>     1.65     24.3    4.42
##  4    15 <NA>     2.18     28.7    4.89
##  5    16 <NA>     3        32      5.37
##  6     3 female   8.6      42.8    7.32
##  7     4 male     6.5      40      6.6 
##  8     5 female  10.9      45      8.05
##  9    12 female   8.9      44      7.55
## 10    13 <NA>     1.97     28      4.85
## # … with 11 more rows

# alternatively we could specify to have weight AFTER 'sex'
turtles_tidy %>% 
  
  # relocate 'weight' after 'sex'
  relocate(weight,
           .after = sex)

## # A tibble: 21 × 5
##      tag sex    weight c_length h_width
##    <dbl> <chr>   <dbl>    <dbl>   <dbl>
##  1    10 male     7.6      41      7.15
##  2    11 female  11        46.4    8.18
##  3     2 <NA>     1.65     24.3    4.42
##  4    15 <NA>     2.18     28.7    4.89
##  5    16 <NA>     3        32      5.37
##  6     3 female   8.6      42.8    7.32
##  7     4 male     6.5      40      6.6 
##  8     5 female  10.9      45      8.05
##  9    12 female   8.9      44      7.55
## 10    13 <NA>     1.97     28      4.85
## # … with 11 more rows

# if we don't specify a .before or .after argument it will move the selected column to the front of the data
turtles_tidy %>% 
  relocate(weight)

## # A tibble: 21 × 5
##    weight   tag sex    c_length h_width
##     <dbl> <dbl> <chr>     <dbl>   <dbl>
##  1   7.6     10 male       41      7.15
##  2  11       11 female     46.4    8.18
##  3   1.65     2 <NA>       24.3    4.42
##  4   2.18    15 <NA>       28.7    4.89
##  5   3       16 <NA>       32      5.37
##  6   8.6      3 female     42.8    7.32
##  7   6.5      4 male       40      6.6 
##  8  10.9      5 female     45      8.05
##  9   8.9     12 female     44      7.55
## 10   1.97    13 <NA>       28      4.85
## # … with 11 more rows

We can also reorder multiple columns at a time

# ordering data

# reordering multiple columns by name
turtles_tidy %>% 
  
  # move 'weight', 'c_length', and 'h_width' before 'tag' and 'sex'
  relocate(c(weight, c_length, h_width))

## # A tibble: 21 × 5
##    weight c_length h_width   tag sex   
##     <dbl>    <dbl>   <dbl> <dbl> <chr> 
##  1   7.6      41      7.15    10 male  
##  2  11        46.4    8.18    11 female
##  3   1.65     24.3    4.42     2 <NA>  
##  4   2.18     28.7    4.89    15 <NA>  
##  5   3        32      5.37    16 <NA>  
##  6   8.6      42.8    7.32     3 female
##  7   6.5      40      6.6      4 male  
##  8  10.9      45      8.05     5 female
##  9   8.9      44      7.55    12 female
## 10   1.97     28      4.85    13 <NA>  
## # … with 11 more rows

# alternatively we could specify which variables to relocate by their type
turtles_tidy %>% 
  
  # move all numeric variables to the front
  relocate(where(is.numeric))

## # A tibble: 21 × 5
##      tag c_length h_width weight sex   
##    <dbl>    <dbl>   <dbl>  <dbl> <chr> 
##  1    10     41      7.15   7.6  male  
##  2    11     46.4    8.18  11    female
##  3     2     24.3    4.42   1.65 <NA>  
##  4    15     28.7    4.89   2.18 <NA>  
##  5    16     32      5.37   3    <NA>  
##  6     3     42.8    7.32   8.6  female
##  7     4     40      6.6    6.5  male  
##  8     5     45      8.05  10.9  female
##  9    12     44      7.55   8.9  female
## 10    13     28      4.85   1.97 <NA>  
## # … with 11 more rows

# or
turtles_tidy %>% 
  
  # move all numeric variables after 'tag'
  relocate(where(is.numeric),
                 .after = tag)

## # A tibble: 21 × 5
##      tag c_length h_width weight sex   
##    <dbl>    <dbl>   <dbl>  <dbl> <chr> 
##  1    10     41      7.15   7.6  male  
##  2    11     46.4    8.18  11    female
##  3     2     24.3    4.42   1.65 <NA>  
##  4    15     28.7    4.89   2.18 <NA>  
##  5    16     32      5.37   3    <NA>  
##  6     3     42.8    7.32   8.6  female
##  7     4     40      6.6    6.5  male  
##  8     5     45      8.05  10.9  female
##  9    12     44      7.55   8.9  female
## 10    13     28      4.85   1.97 <NA>  
## # … with 11 more rows

Practice with the diamonds data in the ggplot2
package.  Reorder the
columns so that price is first.

# practice with diamonds data

# reorder columns so price is first
diamonds %>% 
  
  # move price to front
  relocate(price) # most parsimonious way

## # A tibble: 53,940 × 10
##    price carat cut       color clarity depth table     x     y     z
##    <int> <dbl> <ord>     <ord> <ord>   <dbl> <dbl> <dbl> <dbl> <dbl>
##  1   326  0.23 Ideal     E     SI2      61.5    55  3.95  3.98  2.43
##  2   326  0.21 Premium   E     SI1      59.8    61  3.89  3.84  2.31
##  3   327  0.23 Good      E     VS1      56.9    65  4.05  4.07  2.31
##  4   334  0.29 Premium   I     VS2      62.4    58  4.2   4.23  2.63
##  5   335  0.31 Good      J     SI2      63.3    58  4.34  4.35  2.75
##  6   336  0.24 Very Good J     VVS2     62.8    57  3.94  3.96  2.48
##  7   336  0.24 Very Good I     VVS1     62.3    57  3.95  3.98  2.47
##  8   337  0.26 Very Good H     SI1      61.9    55  4.07  4.11  2.53
##  9   337  0.22 Fair      E     VS2      65.1    61  3.87  3.78  2.49
## 10   338  0.23 Very Good H     VS1      59.4    61  4     4.05  2.39
## # … with 53,930 more rows

# or
diamonds %>% 
  
  # move price to front
  relocate(price,
           .before = carat)

## # A tibble: 53,940 × 10
##    price carat cut       color clarity depth table     x     y     z
##    <int> <dbl> <ord>     <ord> <ord>   <dbl> <dbl> <dbl> <dbl> <dbl>
##  1   326  0.23 Ideal     E     SI2      61.5    55  3.95  3.98  2.43
##  2   326  0.21 Premium   E     SI1      59.8    61  3.89  3.84  2.31
##  3   327  0.23 Good      E     VS1      56.9    65  4.05  4.07  2.31
##  4   334  0.29 Premium   I     VS2      62.4    58  4.2   4.23  2.63
##  5   335  0.31 Good      J     SI2      63.3    58  4.34  4.35  2.75
##  6   336  0.24 Very Good J     VVS2     62.8    57  3.94  3.96  2.48
##  7   336  0.24 Very Good I     VVS1     62.3    57  3.95  3.98  2.47
##  8   337  0.26 Very Good H     SI1      61.9    55  4.07  4.11  2.53
##  9   337  0.22 Fair      E     VS2      65.1    61  3.87  3.78  2.49
## 10   338  0.23 Very Good H     VS1      59.4    61  4     4.05  2.39
## # … with 53,930 more rows

With the turtles_tidy data let’s try to move all the
factors to the front

# practice with turtles_tidy data on factors

turtles_tidy %>% 
  
  # move factors to front
  relocate(where(is.factor))

## # A tibble: 21 × 5
##      tag sex    c_length h_width weight
##    <dbl> <chr>     <dbl>   <dbl>  <dbl>
##  1    10 male       41      7.15   7.6 
##  2    11 female     46.4    8.18  11   
##  3     2 <NA>       24.3    4.42   1.65
##  4    15 <NA>       28.7    4.89   2.18
##  5    16 <NA>       32      5.37   3   
##  6     3 female     42.8    7.32   8.6 
##  7     4 male       40      6.6    6.5 
##  8     5 female     45      8.05  10.9 
##  9    12 female     44      7.55   8.9 
## 10    13 <NA>       28      4.85   1.97
## # … with 11 more rows
…
  # Data modification ----------------------

  # Replace ---------------------

# fix issue with multiple entries for female
turtles_tidy <-  turtles_tidy %>% 
  mutate(sex = replace(sex, 
                       sex == "fem",
                       "female"))

# print
turtles_tidy

## # A tibble: 21 × 5
##      tag sex    c_length h_width weight
##    <dbl> <fct>     <dbl>   <dbl>  <dbl>
##  1    10 male       41      7.15   7.6 
##  2    11 female     46.4    8.18  11   
##  3     2 <NA>       24.3    4.42   1.65
##  4    15 <NA>       28.7    4.89   2.18
##  5    16 <NA>       32      5.37   3   
##  6     3 female     42.8    7.32   8.6 
##  7     4 male       40      6.6    6.5 
##  8     5 female     45      8.05  10.9 
##  9    12 female     44      7.55   8.9 
## 10    13 <NA>       28      4.85   1.97
## # … with 11 more rows
…
  # If else ----------------------

# first learn morn about the diamonds dataset
?diamonds

# change color to two categories based on worst color diamonds (J)
diamonds %>% 
  mutate(color = if_else(color == 'J', # if color is J 
                         'worst', # TRUE = worst
                         'not_worst')) # FALSE = not_worst

## # A tibble: 53,940 × 10
##    carat cut       color     clarity depth table price     x     y     z
##    <dbl> <ord>     <chr>     <ord>   <dbl> <dbl> <int> <dbl> <dbl> <dbl>
##  1  0.23 Ideal     not_worst SI2      61.5    55   326  3.95  3.98  2.43
##  2  0.21 Premium   not_worst SI1      59.8    61   326  3.89  3.84  2.31
##  3  0.23 Good      not_worst VS1      56.9    65   327  4.05  4.07  2.31
##  4  0.29 Premium   not_worst VS2      62.4    58   334  4.2   4.23  2.63
##  5  0.31 Good      worst     SI2      63.3    58   335  4.34  4.35  2.75
##  6  0.24 Very Good worst     VVS2     62.8    57   336  3.94  3.96  2.48
##  7  0.24 Very Good not_worst VVS1     62.3    57   336  3.95  3.98  2.47
##  8  0.26 Very Good not_worst SI1      61.9    55   337  4.07  4.11  2.53
##  9  0.22 Fair      not_worst VS2      65.1    61   337  3.87  3.78  2.49
## 10  0.23 Very Good not_worst VS1      59.4    61   338  4     4.05  2.39
## # … with 53,930 more rows

We could also create a new column for this variable instead if we
want to preserve the original data

# create new column with two categories based on worst color diamonds (J)
diamonds %>% 
  mutate(color_quality = if_else(color == 'J', # if color is J 
                         'worst', # TRUE = worst
                         'not_worst')) # FALSE = not_worst

## # A tibble: 53,940 × 11
##    carat cut       color clarity depth table price     x     y     z color_qua…¹
##    <dbl> <ord>     <ord> <ord>   <dbl> <dbl> <int> <dbl> <dbl> <dbl> <chr>      
##  1  0.23 Ideal     E     SI2      61.5    55   326  3.95  3.98  2.43 not_worst  
##  2  0.21 Premium   E     SI1      59.8    61   326  3.89  3.84  2.31 not_worst  
##  3  0.23 Good      E     VS1      56.9    65   327  4.05  4.07  2.31 not_worst  
##  4  0.29 Premium   I     VS2      62.4    58   334  4.2   4.23  2.63 not_worst  
##  5  0.31 Good      J     SI2      63.3    58   335  4.34  4.35  2.75 worst      
##  6  0.24 Very Good J     VVS2     62.8    57   336  3.94  3.96  2.48 worst      
##  7  0.24 Very Good I     VVS1     62.3    57   336  3.95  3.98  2.47 not_worst  
##  8  0.26 Very Good H     SI1      61.9    55   337  4.07  4.11  2.53 not_worst  
##  9  0.22 Fair      E     VS2      65.1    61   337  3.87  3.78  2.49 not_worst  
## 10  0.23 Very Good H     VS1      59.4    61   338  4     4.05  2.39 not_worst  
## # … with 53,930 more rows, and abbreviated variable name ¹​color_quality
…
  # Case when ----------------------

# create new column with two categories based on worst color diamonds (J)
diamonds %>% 
  mutate(clarity = case_when(clarity == 'l1' ~ 8,
                             clarity == 'SI2' ~ 7,
                             clarity == 'SI1' ~ 6,
                             clarity == 'VS2' ~ 5,
                             clarity == 'VS1' ~ 4,
                             clarity == 'VVS2' ~ 3,
                             clarity == 'VVS1' ~ 2,
                             clarity == 'IF' ~ 1))

## # A tibble: 53,940 × 10
##    carat cut       color clarity depth table price     x     y     z
##    <dbl> <ord>     <ord>   <dbl> <dbl> <dbl> <int> <dbl> <dbl> <dbl>
##  1  0.23 Ideal     E           7  61.5    55   326  3.95  3.98  2.43
##  2  0.21 Premium   E           6  59.8    61   326  3.89  3.84  2.31
##  3  0.23 Good      E           4  56.9    65   327  4.05  4.07  2.31
##  4  0.29 Premium   I           5  62.4    58   334  4.2   4.23  2.63
##  5  0.31 Good      J           7  63.3    58   335  4.34  4.35  2.75
##  6  0.24 Very Good J           3  62.8    57   336  3.94  3.96  2.48
##  7  0.24 Very Good I           2  62.3    57   336  3.95  3.98  2.47
##  8  0.26 Very Good H           6  61.9    55   337  4.07  4.11  2.53
##  9  0.22 Fair      E           5  65.1    61   337  3.87  3.78  2.49
## 10  0.23 Very Good H           4  59.4    61   338  4     4.05  2.39
## # … with 53,930 more rows

Now we have scared the diamonds based on clarity with 8 being the
worst and 1 being the best.

This is a lot of categories/levels though. Maybe if we were doing an
analysis or plotting this data we would want to simplify this data and
clump some of these scores together. We can do that too!

# group the scores for clarity using case_when
diamonds %>% 
  mutate(clarity = case_when(clarity == 'l1' ~ 'worst',
                             clarity == 'IF' ~ 'best',
                             .default = 'neutral'))

## # A tibble: 53,940 × 10
##    carat cut       color clarity depth table price     x     y     z
##    <dbl> <ord>     <ord> <chr>   <dbl> <dbl> <int> <dbl> <dbl> <dbl>
##  1  0.23 Ideal     E     neutral  61.5    55   326  3.95  3.98  2.43
##  2  0.21 Premium   E     neutral  59.8    61   326  3.89  3.84  2.31
##  3  0.23 Good      E     neutral  56.9    65   327  4.05  4.07  2.31
##  4  0.29 Premium   I     neutral  62.4    58   334  4.2   4.23  2.63
##  5  0.31 Good      J     neutral  63.3    58   335  4.34  4.35  2.75
##  6  0.24 Very Good J     neutral  62.8    57   336  3.94  3.96  2.48
##  7  0.24 Very Good I     neutral  62.3    57   336  3.95  3.98  2.47
##  8  0.26 Very Good H     neutral  61.9    55   337  4.07  4.11  2.53
##  9  0.22 Fair      E     neutral  65.1    61   337  3.87  3.78  2.49
## 10  0.23 Very Good H     neutral  59.4    61   338  4     4.05  2.39
## # … with 53,930 more rows
What we did here is define the worst and best scores for clarity and
then using the .default argument we set everything else as
‘neutral’.

We can also set multiple values as the same new value.

# group the scores for clarity using case_when
diamonds %>% 
  mutate(clarity = case_when(clarity == 'l1' ~ 'poor',
                             clarity == 'SI2' ~ 'poor',
                             clarity == 'WS1' ~ 'good',
                             clarity == 'IF' ~ 'good',
                             .default = 'moderate'))

## # A tibble: 53,940 × 10
##    carat cut       color clarity  depth table price     x     y     z
##    <dbl> <ord>     <ord> <chr>    <dbl> <dbl> <int> <dbl> <dbl> <dbl>
##  1  0.23 Ideal     E     poor      61.5    55   326  3.95  3.98  2.43
##  2  0.21 Premium   E     moderate  59.8    61   326  3.89  3.84  2.31
##  3  0.23 Good      E     moderate  56.9    65   327  4.05  4.07  2.31
##  4  0.29 Premium   I     moderate  62.4    58   334  4.2   4.23  2.63
##  5  0.31 Good      J     poor      63.3    58   335  4.34  4.35  2.75
##  6  0.24 Very Good J     moderate  62.8    57   336  3.94  3.96  2.48
##  7  0.24 Very Good I     moderate  62.3    57   336  3.95  3.98  2.47
##  8  0.26 Very Good H     moderate  61.9    55   337  4.07  4.11  2.53
##  9  0.22 Fair      E     moderate  65.1    61   337  3.87  3.78  2.49
## 10  0.23 Very Good H     moderate  59.4    61   338  4     4.05  2.39
## # … with 53,930 more rows
…
