Intro to R
…
We can use the Purrr function
imap() because it retains the names of elements within our
list (.y) when we save them

# save each data set as a csv
purrr::imap(
  bobcat_data,
  ~write_csv(.x,
             file = paste0("data/processed/",
                           .y,
                           '.csv')))

## $collection
## # A tibble: 121 × 7
##    bobcat_id county    township collectiondate month coordinates_n coordinates_w
##    <fct>     <fct>     <fct>    <fct>          <fct> <fct>         <fct>        
##  1 5/18/01   Athens    Dover    12/30/18       12    39.38911      -82.14085    
##  2 5/18/02   Athens    Canaan   12/14/18       12    39.30614      -81.957962   
##  3 58-18-03  Morgan    Hower    12/7/18        12    39.494746     -81.988452   
##  4 64-19-04  Perry     Reading  2/10/19        2     39.822288     -82.286951   
##  5 34-15-05  Harrison  Monroe   1/11/15        1     40.420816     -81.216981   
##  6 71-19-06  Ross      Jeffers… 3/7/19         3     39.23797      -82.7881     
##  7 16-19-07  Coshocton Jeffers… 2/28/19        2     40.3524       -82.018      
##  8 40-19-08  Jackson   Madison  2/27/19        2     38.903        -82.4497     
##  9 61-19-09  Noble     Elk      2/20/19        2     39.65858      -81.28657    
## 10 27-19-10  Gallia    Gallipo… 3/1/19         3     38.8425       -82.1815     
## # ℹ 111 more rows
## 
## $necropsy
## # A tibble: 121 × 14
##    bobcat_id necropsy necropsydate dissector approxage sex   fecundity_females
##    <fct>     <fct>    <fct>        <fct>     <fct>     <fct> <fct>            
##  1 5/18/01   1        3/6/19       SP,_MD    Ad        M     na               
##  2 5/18/02   2        3/9/19       SP_MD_CH  Ad        F     na               
##  3 58-18-03  3        3/10/19      MD_CH     Ad        M     na               
##  4 64-19-04  4        3/13/19      MD_CH_HK  Juv       F     0                
##  5 34-15-05  5        3/23/19      MD_CH_JG  Ad        M     na               
##  6 71-19-06  6        3/24/19      MD_CH     Ad        M     na               
##  7 16-19-07  7        3/31/19      MD_HK     Ad        M     na               
##  8 40-19-08  8        4/7/19       MD_CH_HK  Ad        M     na               
##  9 61-19-09  9        4/13/19      MD_CH     Juv       M     na               
## 10 27-19-10  10       4/14/19      MD_HK     Ad        M     na               
## # ℹ 111 more rows
## # ℹ 7 more variables: rearfoot_cm <dbl>, tail_cm <dbl>, ear_cm <dbl>,
## #   `body_w/tail_cm` <dbl>, body <dbl>, weight_kg <dbl>, condition <dbl>
## 
## $age
## # A tibble: 121 × 2
##    bobcat_id   age
##    <fct>     <dbl>
##  1 5/18/01       3
##  2 5/18/02       1
##  3 58-18-03      2
##  4 64-19-04      0
##  5 34-15-05      1
##  6 71-19-06     NA
##  7 16-19-07     NA
##  8 40-19-08      1
##  9 61-19-09      0
## 10 27-19-10      3
## # ℹ 111 more rows
…
